aggUncertainty.utf8.md
…
aggDay <- results %>% group_by(DoY) %>% 
  summarise(
    DateTime = first(DateTime)
    , nRec = sum( NEE_uStar_fqc == 0, na.rm = TRUE)
    , nEff = computeEffectiveNumObs(
       resid, effAcf = !!autoCorr, na.rm = TRUE)
    , NEE = mean(NEE_uStar_f, na.rm = TRUE)
    , sdNEE = if (nEff == 0) NA_real_ else sqrt(
      mean(NEE_uStar_fsd^2, na.rm = TRUE) / (nEff - 1)) 
    , sdNEEuncorr = if (nRec == 0) NA_real_ else sqrt(
       mean(NEE_uStar_fsd^2, na.rm = TRUE) / (nRec - 1))
  )
aggDay

## # A tibble: 365 x 7
##      DoY DateTime             nRec  nEff      NEE  sdNEE sdNEEuncorr
##    <int> <dttm>              <int> <dbl>    <dbl>  <dbl>       <dbl>
##  1     0 1998-01-01 00:30:00    21  7.87  0.124    0.988       0.579
##  2     1 1998-01-02 00:30:00     7  3.66  0.00610  1.57        1.05 
##  3     2 1998-01-03 00:30:00     0  0     0.0484  NA          NA    
##  4     3 1998-01-04 00:30:00     0  0     0.303   NA          NA    
##  5     4 1998-01-05 00:30:00    28 10.9   0.195    0.851       0.515
##  6     5 1998-01-06 00:30:00    48 18.0   0.926    0.615       0.370
##  7     6 1998-01-07 00:30:00    48 18.0  -0.337    0.566       0.340
##  8     7 1998-01-08 00:30:00    46 17.2  -0.139    0.541       0.325
##  9     8 1998-01-09 00:30:00    45 16.8   0.614    0.482       0.289
## 10     9 1998-01-10 00:30:00    36 13.5   0.242    0.646       0.386
## # … with 355 more rows
…
